[gd_scene format=2]

[node name="Control" type="Control"]
anchor_right = 1.0
anchor_bottom = 1.0
__meta__ = {
"_edit_use_anchors_": false
}

[node name="ColorRect" type="ColorRect" parent="."]
anchor_right = 1.0
anchor_bottom = 1.0
color = Color( 0, 0, 0, 1 )
__meta__ = {
"_edit_use_anchors_": false
}

[node name="RichTextLabel" type="RichTextLabel" parent="."]
margin_left = 320.0
margin_top = 170.0
margin_right = 600.0
margin_bottom = 300.0
bbcode_enabled = true
bbcode_text = "[size=50]HEY[/size]"
text = "[size=50]HEY[/size]"
